EESchema Schematic File Version 2
LIBS:power
LIBS:device
LIBS:transistors
LIBS:conn
LIBS:linear
LIBS:regul
LIBS:74xx
LIBS:cmos4000
LIBS:adc-dac
LIBS:memory
LIBS:xilinx
LIBS:microcontrollers
LIBS:dsp
LIBS:microchip
LIBS:analog_switches
LIBS:motorola
LIBS:texas
LIBS:intel
LIBS:audio
LIBS:interface
LIBS:digital-audio
LIBS:philips
LIBS:display
LIBS:cypress
LIBS:siliconi
LIBS:opto
LIBS:atmel
LIBS:contrib
LIBS:valves
LIBS:PulseSensor
LIBS:PulseSensor-cache
EELAYER 25 0
EELAYER END
$Descr A4 11693 8268
encoding utf-8
Sheet 1 1
Title ""
Date ""
Rev ""
Comp ""
Comment1 ""
Comment2 ""
Comment3 ""
Comment4 ""
$EndDescr
$Comp
L C C1
U 1 1 58BC792F
P 4900 3850
F 0 "C1" H 4925 3950 50  0000 L CNN
F 1 "0.1uF" H 4650 3750 50  0000 L CNN
F 2 "Capacitors_SMD:C_1206_HandSoldering" H 4938 3700 50  0001 C CNN
F 3 "" H 4900 3850 50  0000 C CNN
	1    4900 3850
	1    0    0    -1  
$EndComp
$Comp
L C C3
U 1 1 58BC795C
P 5700 3150
F 0 "C3" H 5725 3250 50  0000 L CNN
F 1 "0.1uF" H 5725 3050 50  0000 L CNN
F 2 "Capacitors_SMD:C_1206_HandSoldering" H 5738 3000 50  0001 C CNN
F 3 "" H 5700 3150 50  0000 C CNN
	1    5700 3150
	1    0    0    -1  
$EndComp
$Comp
L CONN_01X03 P1
U 1 1 58BC79E1
P 6200 3500
F 0 "P1" H 6200 3700 50  0000 C CNN
F 1 "CONN_01X03" H 6400 3800 50  0000 C CNN
F 2 "Connectors:PINHEAD1-3" H 6200 3500 50  0001 C CNN
F 3 "" H 6200 3500 50  0000 C CNN
	1    6200 3500
	1    0    0    -1  
$EndComp
$Comp
L LED D1
U 1 1 58BC7A27
P 5250 3950
F 0 "D1" H 5250 4050 50  0000 C CNN
F 1 "RED" H 5250 3850 50  0000 C CNN
F 2 "LEDs:LED_D3.0mm" H 5250 3950 50  0001 C CNN
F 3 "" H 5250 3950 50  0000 C CNN
	1    5250 3950
	0    -1   -1   0   
$EndComp
$Comp
L NSL19M51 R2
U 1 1 58BC7A7C
P 3500 3750
F 0 "R2" H 3550 3800 50  0000 L CNN
F 1 "NSL-19M51" H 3550 3750 50  0000 L TNN
F 2 "LEDs:LED_D3.0mm" V 3550 3500 50  0001 L CNN
F 3 "" H 3500 3700 50  0000 C CNN
	1    3500 3750
	1    0    0    -1  
$EndComp
$Comp
L R R1
U 1 1 58BC7AD8
P 3500 3150
F 0 "R1" V 3580 3150 50  0000 C CNN
F 1 "R" V 3500 3150 50  0000 C CNN
F 2 "Resistors_SMD:R_1206_HandSoldering" V 3430 3150 50  0001 C CNN
F 3 "" H 3500 3150 50  0000 C CNN
	1    3500 3150
	1    0    0    -1  
$EndComp
$Comp
L TLC555 U1
U 1 1 58BC7B21
P 4300 3400
F 0 "U1" H 4200 3825 50  0000 R CNN
F 1 "TLC555" H 4200 3750 50  0000 R CNN
F 2 "Housings_DIP:DIP-8_W7.62mm_LongPads" H 4350 3150 50  0001 L CNN
F 3 "" H 4950 2850 50  0000 C CNN
	1    4300 3400
	1    0    0    -1  
$EndComp
$Comp
L VCC #PWR01
U 1 1 58BC7B54
P 4300 2850
F 0 "#PWR01" H 4300 2700 50  0001 C CNN
F 1 "VCC" H 4300 3000 50  0000 C CNN
F 2 "" H 4300 2850 50  0000 C CNN
F 3 "" H 4300 2850 50  0000 C CNN
	1    4300 2850
	1    0    0    -1  
$EndComp
$Comp
L GND #PWR02
U 1 1 58BC7B78
P 5250 4150
F 0 "#PWR02" H 5250 3900 50  0001 C CNN
F 1 "GND" H 5250 4000 50  0000 C CNN
F 2 "" H 5250 4150 50  0000 C CNN
F 3 "" H 5250 4150 50  0000 C CNN
	1    5250 4150
	1    0    0    -1  
$EndComp
$Comp
L R R3
U 1 1 58BC82E2
P 5250 3600
F 0 "R3" V 5330 3600 50  0000 C CNN
F 1 "330" V 5250 3600 50  0000 C CNN
F 2 "Resistors_SMD:R_1206" V 5180 3600 50  0001 C CNN
F 3 "" H 5250 3600 50  0000 C CNN
	1    5250 3600
	1    0    0    -1  
$EndComp
$Comp
L GND #PWR03
U 1 1 58BC839A
P 4900 4150
F 0 "#PWR03" H 4900 3900 50  0001 C CNN
F 1 "GND" H 4900 4000 50  0000 C CNN
F 2 "" H 4900 4150 50  0000 C CNN
F 3 "" H 4900 4150 50  0000 C CNN
	1    4900 4150
	1    0    0    -1  
$EndComp
$Comp
L GND #PWR04
U 1 1 58BC83C0
P 4300 4150
F 0 "#PWR04" H 4300 3900 50  0001 C CNN
F 1 "GND" H 4300 4000 50  0000 C CNN
F 2 "" H 4300 4150 50  0000 C CNN
F 3 "" H 4300 4150 50  0000 C CNN
	1    4300 4150
	1    0    0    -1  
$EndComp
$Comp
L GND #PWR05
U 1 1 58BC83E6
P 3500 4150
F 0 "#PWR05" H 3500 3900 50  0001 C CNN
F 1 "GND" H 3500 4000 50  0000 C CNN
F 2 "" H 3500 4150 50  0000 C CNN
F 3 "" H 3500 4150 50  0000 C CNN
	1    3500 4150
	1    0    0    -1  
$EndComp
$Comp
L VCC #PWR06
U 1 1 58BC84F1
P 3500 2850
F 0 "#PWR06" H 3500 2700 50  0001 C CNN
F 1 "VCC" H 3500 3000 50  0000 C CNN
F 2 "" H 3500 2850 50  0000 C CNN
F 3 "" H 3500 2850 50  0000 C CNN
	1    3500 2850
	1    0    0    -1  
$EndComp
$Comp
L GND #PWR07
U 1 1 58BC8589
P 5950 3700
F 0 "#PWR07" H 5950 3450 50  0001 C CNN
F 1 "GND" H 5950 3550 50  0000 C CNN
F 2 "" H 5950 3700 50  0000 C CNN
F 3 "" H 5950 3700 50  0000 C CNN
	1    5950 3700
	1    0    0    -1  
$EndComp
$Comp
L VCC #PWR08
U 1 1 58BC85AF
P 5950 2850
F 0 "#PWR08" H 5950 2700 50  0001 C CNN
F 1 "VCC" H 5950 3000 50  0000 C CNN
F 2 "" H 5950 2850 50  0000 C CNN
F 3 "" H 5950 2850 50  0000 C CNN
	1    5950 2850
	1    0    0    -1  
$EndComp
Wire Wire Line
	3500 2850 3500 3000
Wire Wire Line
	3500 3300 3500 3600
Wire Wire Line
	3500 3900 3500 4150
Wire Wire Line
	3800 3400 3700 3400
Wire Wire Line
	3700 3400 3700 3500
Wire Wire Line
	3700 3500 3800 3500
Wire Wire Line
	3700 3450 3500 3450
Connection ~ 3500 3450
Connection ~ 3700 3450
Wire Wire Line
	4300 3700 4300 4150
Wire Wire Line
	4300 2850 4300 3000
Wire Wire Line
	4800 3500 4900 3500
Wire Wire Line
	4900 3500 4900 3700
Wire Wire Line
	4900 4000 4900 4150
Wire Wire Line
	4800 3400 6000 3400
Wire Wire Line
	5950 2850 5950 3500
Wire Wire Line
	5950 3500 6000 3500
Wire Wire Line
	5450 3600 6000 3600
Wire Wire Line
	5950 3600 5950 3700
Wire Wire Line
	5250 3400 5250 3450
Connection ~ 5250 3400
Wire Wire Line
	5250 3800 5250 3750
Wire Wire Line
	5250 4150 5250 4100
Wire Wire Line
	5700 3000 5700 2900
Wire Wire Line
	5450 2900 5950 2900
Connection ~ 5950 2900
Wire Wire Line
	5700 3600 5700 3300
Connection ~ 5950 3600
$Comp
L CP C2
U 1 1 58BD13DC
P 5450 3150
F 0 "C2" H 5475 3250 50  0000 L CNN
F 1 "1uF" H 5475 3050 50  0000 L CNN
F 2 "Capacitors_THT:CP_Radial_Tantal_D4.5mm_P2.50mm" H 5488 3000 50  0001 C CNN
F 3 "" H 5450 3150 50  0000 C CNN
	1    5450 3150
	1    0    0    -1  
$EndComp
Wire Wire Line
	5450 3000 5450 2900
Connection ~ 5700 2900
Wire Wire Line
	5450 3300 5450 3600
Connection ~ 5700 3600
Wire Wire Line
	4800 3200 4900 3200
Wire Wire Line
	4900 3200 4900 2900
Wire Wire Line
	4900 2900 4300 2900
Connection ~ 4300 2900
Text Notes 6300 3450 0    60   ~ 0
Pwr (>+3.3V)
Text Notes 6300 3650 0    60   ~ 0
Gnd
Text Notes 6300 3550 0    60   ~ 0
Pulse Out
$EndSCHEMATC
