(module Camblock_CTBP3051-3 (layer F.Cu) (tedit 58BAA76F)
  (fp_text reference REF** (at 4.1 -2.6) (layer F.SilkS)
    (effects (font (size 1 1) (thickness 0.15)))
  )
  (fp_text value Camblock_CTB5202_3 (at 3.5 4.4) (layer F.Fab)
    (effects (font (size 1 1) (thickness 0.15)))
  )
  (fp_line (start 8.8 1.3) (end 8.3 1.1) (layer F.SilkS) (width 0.15))
  (fp_line (start 8.3 1.1) (end 8.3 1.5) (layer F.SilkS) (width 0.15))
  (fp_line (start 8.3 1.5) (end 8.8 1.3) (layer F.SilkS) (width 0.15))
  (fp_line (start -2.3 1.1) (end -2.3 1.5) (layer F.SilkS) (width 0.15))
  (fp_line (start -1.8 1.3) (end -2.3 1.1) (layer F.SilkS) (width 0.15))
  (fp_line (start -2.3 1.5) (end -1.8 1.3) (layer F.SilkS) (width 0.15))
  (fp_circle (center 7 0) (end 8.1 0.1) (layer F.SilkS) (width 0.1))
  (fp_circle (center 3.5 0) (end 4.6 0.1) (layer F.SilkS) (width 0.1))
  (fp_circle (center 0 0) (end 1.1 0.1) (layer F.SilkS) (width 0.1))
  (fp_circle (center 7 0) (end 8.3 0.2) (layer F.SilkS) (width 0.15))
  (fp_circle (center 3.5 0) (end 4.8 0.2) (layer F.SilkS) (width 0.15))
  (fp_circle (center 0 0) (end 1.3 0.2) (layer F.SilkS) (width 0.15))
  (fp_line (start 8.8 -2.8) (end 9.3 -3) (layer F.SilkS) (width 0.15))
  (fp_line (start 9.3 -3) (end 9.3 -2.6) (layer F.SilkS) (width 0.15))
  (fp_line (start 9.3 -2.6) (end 8.8 -2.8) (layer F.SilkS) (width 0.15))
  (fp_line (start -1.8 1.8) (end 8.8 1.8) (layer F.SilkS) (width 0.15))
  (fp_line (start -1.8 -1.8) (end 8.8 -1.8) (layer F.SilkS) (width 0.15))
  (fp_line (start 8.8 3.4) (end 8.8 -3.4) (layer F.SilkS) (width 0.15))
  (fp_line (start -1.8 -3.4) (end -1.8 3.4) (layer F.SilkS) (width 0.15))
  (fp_line (start 9.3 -3.3) (end 9.3 3.4) (layer F.CrtYd) (width 0.05))
  (fp_line (start -2.3 -3.3) (end -2.3 3.4) (layer F.CrtYd) (width 0.05))
  (fp_line (start -2.1 3.4) (end -2.3 3.4) (layer F.CrtYd) (width 0.05))
  (fp_line (start 9.3 3.4) (end 8.9 3.4) (layer F.CrtYd) (width 0.05))
  (fp_line (start 9 -3.4) (end 9.3 -3.4) (layer F.CrtYd) (width 0.05))
  (fp_line (start 9.3 -3.4) (end 9.3 -3.3) (layer F.CrtYd) (width 0.05))
  (fp_line (start -2 -3.4) (end -2.3 -3.4) (layer F.CrtYd) (width 0.05))
  (fp_line (start -2.3 -3.4) (end -2.3 -3.3) (layer F.CrtYd) (width 0.05))
  (fp_line (start -2 -3.4) (end 9 -3.4) (layer F.CrtYd) (width 0.05))
  (fp_line (start 8.9 3.4) (end -2.1 3.4) (layer F.CrtYd) (width 0.05))
  (fp_line (start -1.8 3.4) (end 8.8 3.4) (layer F.SilkS) (width 0.15))
  (fp_line (start 8.8 -3.4) (end -1.8 -3.4) (layer F.SilkS) (width 0.15))
  (pad 2 thru_hole circle (at 3.5 0) (size 2.4 2.4) (drill 1.1) (layers *.Cu *.Mask))
  (pad 3 thru_hole circle (at 7 0) (size 2.4 2.4) (drill 1.1) (layers *.Cu *.Mask))
  (pad 1 thru_hole rect (at 0 0) (size 2.4 2.4) (drill 1.1) (layers *.Cu *.Mask))
)
