(module Mounting_Holes:MountingHole_2.2mm_M2_Pad (layer F.Cu) (tedit 58B85320)
  (descr "Mounting Hole 2.2mm, M2")
  (tags "mounting hole 2.2mm m2")
  (fp_text reference REF** (at 0 -3.2) (layer F.SilkS)
    (effects (font (size 1 1) (thickness 0.15)))
  )
  (fp_text value MountingHole_2.2mm_M2_Pad (at 0 3.2) (layer F.Fab)
    (effects (font (size 1 1) (thickness 0.15)))
  )
  (fp_circle (center 0 0) (end 2.2 0) (layer Cmts.User) (width 0.15))
  (fp_circle (center 0 0) (end 2.45 0) (layer F.CrtYd) (width 0.05))
  (pad 1 thru_hole circle (at 0 0) (size 4.4 4.4) (drill 2.2) (layers *.Cu *.Mask))
)
