(module SolderJumper1x3 (layer F.Cu) (tedit 58C5B863)
  (tags "Solder Jumper")
  (attr smd)
  (fp_text reference J1 (at 0 2.159) (layer F.SilkS)
    (effects (font (size 1 1) (thickness 0.15)))
  )
  (fp_text value solder_jmp_3 (at 0 2.286) (layer F.Fab)
    (effects (font (size 1 1) (thickness 0.15)))
  )
  (fp_line (start 3.4 1.4) (end 1.7 1.4) (layer F.SilkS) (width 0.15))
  (fp_line (start 1.7 -1.4) (end 3.4 -1.4) (layer F.SilkS) (width 0.15))
  (fp_line (start 3.4 -1.4) (end 1.7 -1.4) (layer F.SilkS) (width 0.15))
  (fp_line (start -3.5 -1.4) (end 3.6 -1.4) (layer F.CrtYd) (width 0.15))
  (fp_line (start 3.6 -1.4) (end 3.6 1.3) (layer F.CrtYd) (width 0.15))
  (fp_line (start 3.6 1.3) (end -3.5 1.3) (layer F.CrtYd) (width 0.15))
  (fp_line (start -3.5 1.3) (end -3.5 -1.4) (layer F.CrtYd) (width 0.15))
  (fp_line (start 3.6 -1.4) (end -3.5 -1.4) (layer F.Fab) (width 0.15))
  (fp_line (start -3.5 -1.4) (end -3.5 -1.3) (layer F.Fab) (width 0.15))
  (fp_line (start 3.6 -1.4) (end 3.6 1.3) (layer F.Fab) (width 0.15))
  (fp_line (start 3.6 1.3) (end -3.5 1.3) (layer F.Fab) (width 0.15))
  (fp_line (start -3.5 1.3) (end -3.5 -1.3) (layer F.Fab) (width 0.15))
  (fp_line (start 1.74 -1.397) (end -3.34 -1.397) (layer F.SilkS) (width 0.15))
  (fp_line (start 3.567 1.27) (end 3.567 -1.27) (layer F.SilkS) (width 0.15))
  (fp_line (start -3.34 1.397) (end 1.74 1.397) (layer F.SilkS) (width 0.15))
  (fp_line (start -3.467 -1.27) (end -3.467 1.27) (layer F.SilkS) (width 0.15))
  (fp_arc (start -3.34 1.27) (end -3.34 1.397) (angle 90) (layer F.SilkS) (width 0.15))
  (fp_arc (start -3.34 -1.27) (end -3.467 -1.27) (angle 90) (layer F.SilkS) (width 0.15))
  (fp_arc (start 3.44 -1.27) (end 3.44 -1.397) (angle 90) (layer F.SilkS) (width 0.15))
  (fp_arc (start 3.44 1.27) (end 3.567 1.27) (angle 90) (layer F.SilkS) (width 0.15))
  (fp_text user %R (at 0 0) (layer F.Fab)
    (effects (font (size 1 1) (thickness 0.15)))
  )
  (pad 1 smd rect (at -1.6 0) (size 1 2) (layers F.Cu F.Paste F.Mask))
  (pad 2 smd rect (at 0 0) (size 1.2 2) (layers F.Cu F.Paste F.Mask))
  (pad 3 smd rect (at 1.6 0) (size 1 2) (layers F.Cu F.Paste F.Mask))
  (pad 1 smd circle (at -2.1 0) (size 2 2) (layers F.Cu F.Paste F.Mask))
  (pad 3 smd circle (at 2.1 0) (size 2 2) (layers F.Cu F.Paste F.Mask))
)
