(module WS2812B (layer F.Cu) (tedit 58BAEEF4)
  (descr http://www.world-semi.com/uploads/soft/150522/1-150522091P5.pdf)
  (tags "LED NeoPixel")
  (attr smd)
  (fp_text reference REF** (at 0 -3.5) (layer F.SilkS)
    (effects (font (size 1 1) (thickness 0.15)))
  )
  (fp_text value LED_WS2812B-PLCC4 (at 0 4) (layer F.Fab)
    (effects (font (size 1 1) (thickness 0.15)))
  )
  (fp_line (start 0 2.6) (end 1.3 1.4) (layer F.SilkS) (width 0.15))
  (fp_line (start 2.6 0) (end 2 0.6) (layer F.SilkS) (width 0.15))
  (fp_line (start 2.6 2.6) (end -2.6 2.6) (layer F.SilkS) (width 0.15))
  (fp_line (start -2.6 -2.6) (end 2.6 -2.6) (layer F.SilkS) (width 0.15))
  (fp_line (start 2.6 -2.6) (end 2.6 -2.4) (layer F.SilkS) (width 0.15))
  (fp_line (start 2.6 2.6) (end 2.6 2.4) (layer F.SilkS) (width 0.15))
  (fp_line (start 2.6 0.8) (end 2.6 -0.8) (layer F.SilkS) (width 0.15))
  (fp_line (start -2.6 2.6) (end -2.6 2.4) (layer F.SilkS) (width 0.15))
  (fp_line (start -2.6 -0.8) (end -2.6 0.8) (layer F.SilkS) (width 0.15))
  (fp_line (start -2.6 -2.6) (end -2.6 -2.4) (layer F.SilkS) (width 0.15))
  (fp_circle (center 0 0) (end 1.2 0.6) (layer F.SilkS) (width 0.15))
  (fp_line (start 3.75 -2.85) (end -3.75 -2.85) (layer F.CrtYd) (width 0.05))
  (fp_line (start 3.75 2.85) (end 3.75 -2.85) (layer F.CrtYd) (width 0.05))
  (fp_line (start -3.75 2.85) (end 3.75 2.85) (layer F.CrtYd) (width 0.05))
  (fp_line (start -3.75 -2.85) (end -3.75 2.85) (layer F.CrtYd) (width 0.05))
  (fp_line (start 2.5 1.5) (end 1.5 2.5) (layer F.Fab) (width 0.1))
  (fp_line (start -2.5 -2.5) (end -2.5 2.5) (layer F.Fab) (width 0.1))
  (fp_line (start -2.5 2.5) (end 2.5 2.5) (layer F.Fab) (width 0.1))
  (fp_line (start 2.5 2.5) (end 2.5 -2.5) (layer F.Fab) (width 0.1))
  (fp_line (start 2.5 -2.5) (end -2.5 -2.5) (layer F.Fab) (width 0.1))
  (fp_circle (center 0 0) (end 0 -2) (layer F.Fab) (width 0.1))
  (pad 3 smd rect (at 2.5 1.6) (size 1.6 1) (layers F.Cu F.Paste F.Mask))
  (pad 4 smd rect (at 2.5 -1.6) (size 1.6 1) (layers F.Cu F.Paste F.Mask))
  (pad 2 smd rect (at -2.5 1.6) (size 1.6 1) (layers F.Cu F.Paste F.Mask))
  (pad 1 smd rect (at -2.5 -1.6) (size 1.6 1) (layers F.Cu F.Paste F.Mask))
  (model LEDs.3dshapes/LED_WS2812B-PLCC4.wrl
    (at (xyz 0 0 0))
    (scale (xyz 0.39 0.39 0.39))
    (rotate (xyz 0 0 180))
  )
)
